Tools for QA and validation of Camera Trap data • bccamtrap
…
Sample station information

Read the sample station information. This creates a spatial data frame of class "sf", from the sf package. This format allows us to work with it as a regular data frame, but also do spatial things with it.

sample_stations <- read_sample_station_info(metadata_path)
sample_stations

#> Simple feature collection with 21 features and 28 fields
#> Geometry type: POINT
#> Dimension:     XY
#> Bounding box:  xmin: -126.3803 ymin: 47.30585 xmax: -125.6508 ymax: 47.3639
#> Geodetic CRS:  WGS 84
#> # A tibble: 21 × 23
#>    study_area_name study_area_photos sample_station_label station_status
#>    <chr>           <chr>             <chr>                <chr>         
#>  1 Test Project    Y                 19_1                 Camera Active 
#>  2 Test Project    Y                 19_2                 Camera Active 
#>  3 Test Project    Y                 20                   Camera Active 
#>  4 Test Project    Y                 21_1                 Camera Active 
#>  5 Test Project    Y                 21_2                 Camera Active 
#>  6 Test Project    Y                 24                   Camera Active 
#>  7 Test Project    Y                 25                   Camera Active 
#>  8 Test Project    Y                 26                   Camera Active 
#>  9 Test Project    Y                 27                   Camera Moved  
#> 10 Test Project    Y                 28                   Camera Active 
#> # ℹ 11 more rows
#> # ℹ 19 more variables: number_of_cameras <dbl>, set_date <date>,
#> #   general_location <chr>, elevation_m <dbl>, slope_percent <dbl>,
#> #   aspect_degrees <dbl>, crown_closure_percent <dbl>,
#> #   camera_bearing_degrees <dbl>, camera_height_cm <dbl>,
#> #   distance_to_feature_m <dbl>, visible_range_m <dbl>, habitat_feature <chr>,
#> #   lock <chr>, code <chr>, sample_station_comments <chr>, …
…
Camera Information:

Read camera information using read_camera_info():

camera_info <- read_camera_info(metadata_path)
camera_info

#> Simple feature collection with 21 features and 13 fields
#> Geometry type: POINT
#> Dimension:     XY
#> Bounding box:  xmin: -125.5219 ymin: 49.28703 xmax: -125.2213 ymax: 49.34728
#> Geodetic CRS:  WGS 84
#> # A tibble: 21 × 8
#>    study_area_name parent_sample_station_label camera_label make_of_camera_code
#>    <chr>           <chr>                       <chr>        <chr>              
#>  1 Test Project    19_1                        UBC 2        <NA>               
#>  2 Test Project    19_2                        UBC 1        <NA>               
#>  3 Test Project    20                          Eco1059      <NA>               
#>  4 Test Project    21_1                        Eco1057      <NA>               
#>  5 Test Project    21_2                        Eco7998      <NA>               
#>  6 Test Project    24                          Eco1050      <NA>               
#>  7 Test Project    25                          Eco1040      <NA>               
#>  8 Test Project    26                          Eco7939      <NA>               
#>  9 Test Project    27                          Eco6690      <NA>               
#> 10 Test Project    28                          UBC 4        <NA>               
#> # ℹ 11 more rows
#> # ℹ 4 more variables: model_of_camera <chr>, camera_comments <chr>,
#> #   site_description_comments <chr>, site_description_date <date>

Camera Setup and Checks:

camera_setup_checks <- read_cam_setup_checks(metadata_path)
camera_setup_checks

#> # A tibble: 43 × 30
#>    study_area_name sample_station_label deployment_label camera_label surveyors
#>    <chr>           <chr>                <chr>            <chr>        <chr>    
#>  1 Test Project    19_1                 <NA>             UBC 2        MB,MS    
#>  2 Test Project    19_2                 <NA>             UBC 1        MB,MS    
#>  3 Test Project    20                   <NA>             Eco1059      MB,MS    
#>  4 Test Project    21_1                 <NA>             Eco1057      MB,MS    
#>  5 Test Project    21_2                 <NA>             Eco7998      MB,MS    
#>  6 Test Project    24                   <NA>             Eco1050      MB,MS    
#>  7 Test Project    25                   <NA>             Eco1040      MB,MS    
#>  8 Test Project    26                   <NA>             Eco7939      MB,MS    
#>  9 Test Project    27                   <NA>             Eco6690      MB,MS    
#> 10 Test Project    28                   <NA>             UBC 4        MB,MS    
#> # ℹ 33 more rows
#> # ℹ 25 more variables: date_time_checked <dttm>, sampling_start <dttm>,
#> #   sampling_end <dttm>, total_visit_or_deployment_time <dbl>,
#> #   unit_of_total_time_code <chr>, visit_type <chr>,
#> #   camera_status_on_arrival <chr>, battery_level <chr>,
#> #   batteries_changed <chr>, number_of_photos <dbl>, quiet_period_s <chr>,
#> #   trigger_sensitivity <chr>, trigger_timing_s <dbl>, …

Deployments

Rather than just looking at the raw camera setup and checks or stations, there is more utility in assembling sampling deployments by combining the sample station information and the camera setup and checks. Do this with the make_deployments() function.

deployments <- make_deployments(metadata_path)
deployments

#> Simple feature collection with 28 features and 58 fields
#> Geometry type: POINT
#> Dimension:     XY
#> Bounding box:  xmin: -123.505 ymin: 51.2599 xmax: -122.7148 ymax: 51.32557
#> Geodetic CRS:  WGS 84
#> # A tibble: 28 × 53
#>    study_area_name sample_station_label deployment_label camera_label surveyors
#>    <chr>           <chr>                <chr>            <chr>        <chr>    
#>  1 Test Project    19_1                 19_1_20230605    UBC 2        CM, BT   
#>  2 Test Project    19_2                 19_2_20230605    UBC 1        CM, BT   
#>  3 Test Project    20                   20_20230605      Eco1059      CM, BT   
#>  4 Test Project    21_1                 21_20230605      Eco1057      CM, BT   
#>  5 Test Project    21_2                 21_2_20230605    Eco7998      CM, BT   
#>  6 Test Project    24                   24_20230708      Eco1050      MB,MS    
#>  7 Test Project    25                   25_20230710      Eco1040      MB,MS    
#>  8 Test Project    26                   26_20230710      Eco7939      MB,MS    
#>  9 Test Project    27                   27_20230605      Eco6690      CM, BT   
#> 10 Test Project    28                   28_20230605      UBC 4        CM, BT   
#> # ℹ 18 more rows
#> # ℹ 48 more variables: date_time_checked <dttm>, deployment_start <dttm>,
#> #   deployment_end <dttm>, deployment_duration_days <dbl>,
#> #   deployment_duration_valid <lgl>, total_visit_or_deployment_time <dbl>,
#> #   unit_of_total_time_code <chr>, visit_type <chr>,
#> #   camera_status_on_arrival <chr>, battery_level <chr>,
#> #   batteries_changed <chr>, number_of_photos <dbl>, quiet_period_s <chr>, …
…
Image data

We can read in an entire directory of image data from multiple csv files, as long as they all follow the same TimeLapse template. Currently it is expected that they follow the v20230518 template.

image_data <- read_image_data(data_path)
image_data

#> # A tibble: 11,833 × 42
#>    root_folder study_area_name sample_station_label deployment_label
#>    <chr>       <chr>           <chr>                <chr>           
#>  1 100RECNX    Test Project    19_1                 19_1_20230605   
#>  2 100RECNX    Test Project    19_1                 19_1_20230605   
#>  3 100RECNX    Test Project    19_1                 19_1_20230605   
#>  4 100RECNX    Test Project    19_1                 19_1_20230605   
#>  5 100RECNX    Test Project    19_1                 19_1_20230605   
#>  6 100RECNX    Test Project    19_1                 19_1_20230605   
#>  7 100RECNX    Test Project    19_1                 19_1_20230605   
#>  8 100RECNX    Test Project    19_1                 19_1_20230605   
#>  9 100RECNX    Test Project    19_1                 19_1_20230605   
#> 10 100RECNX    Test Project    19_1                 19_1_20230605   
#> # ℹ 11,823 more rows
#> # ℹ 38 more variables: date_time <dttm>, episode <chr>, species <chr>,
#> #   total_count_episode <dbl>, obj_count_image <int>, adult_male <int>,
#> #   adult_female <int>, adult_unclassified_sex <int>, yearling_male <int>,
#> #   yearling_female <int>, yearling_unclassified_sex <int>,
#> #   young_of_year_unclassified_sex <int>, juvenile_unclassified_sex <int>,
#> #   male_unclassified_age <int>, female_unclassified_age <int>, …
…
Use the qa_deployment_images() function to find deployment labels that are in the deployment data but not in the image data, and vice-versa. It is usually likely that there will be deployment labels in the deployment data that are missing from the image data if not all of the images have been processed yet. Deployment labels that are present in the image data but not in the deployment data indicate a potential problem.

qa_deployment_images(deployments, image_data)
#> ! The following deployment labels are present in `image_data` but not `deployments`: "21_1_20230605", "2022-11-10", and "2023-01-10"
#> ! The following deployment labels are present in `deployments` but not `image_data`: "21_20230605", "19_1_20231107", "19_2_20231107", "20_20231107", "21_20231107", "21_2_20231108", "25_20231031", "26_20231031", "27_20231031", "28_20231031", "29_1_20231031", "29_2_20231031", "29_3_20231107", and "31_20231107"

Use merge_deployments_images() to join the deployment metadata to the images:

images_with_metadata <- merge_deployments_images(deployments, image_data)
#> ! The following deployment labels are present in `image_data` but not `deployments`: "21_1_20230605", "2022-11-10", and "2023-01-10"
#> ! The following deployment labels are present in `deployments` but not `image_data`: "21_20230605", "19_1_20231107", "19_2_20231107", "20_20231107", "21_20231107", "21_2_20231108", "25_20231031", "26_20231031", "27_20231031", "28_20231031", "29_1_20231031", "29_2_20231031", "29_3_20231107", and "31_20231107"
images_with_metadata
#> # A tibble: 11,833 × 93
#>    root_folder deployment_label date_time           episode species
#>    <chr>       <chr>            <dttm>              <chr>   <chr>  
#>  1 100RECNX    19_1_20230605    2022-11-10 15:15:53 1:1|5   <NA>   
#>  2 100RECNX    19_1_20230605    2022-11-10 15:15:58 1:2|5   <NA>   
#>  3 100RECNX    19_1_20230605    2022-11-10 15:16:25 1:3|5   <NA>   
#>  4 100RECNX    19_1_20230605    2022-11-10 15:16:27 1:4|5   <NA>   
#>  5 100RECNX    19_1_20230605    2022-11-10 15:16:31 1:5|5   <NA>   
#>  6 100RECNX    19_1_20230605    2022-11-11 12:00:00 2:1|1   <NA>   
#>  7 100RECNX    19_1_20230605    2022-11-12 12:00:00 3:1|1   <NA>   
#>  8 100RECNX    19_1_20230605    2022-11-13 12:00:00 4:1|1   <NA>   
#>  9 100RECNX    19_1_20230605    2022-11-14 12:00:00 5:1|1   <NA>   
#> 10 100RECNX    19_1_20230605    2022-11-15 12:00:00 6:1|1   <NA>   
#> # ℹ 11,823 more rows
#> # ℹ 88 more variables: total_count_episode <dbl>, obj_count_image <int>,
#> #   adult_male <int>, adult_female <int>, adult_unclassified_sex <int>,
#> #   yearling_male <int>, yearling_female <int>,
#> #   yearling_unclassified_sex <int>, young_of_year_unclassified_sex <int>,
#> #   juvenile_unclassified_sex <int>, male_unclassified_age <int>,
#> #   female_unclassified_age <int>, unclassified_life_stage_and_sex <int>, …
…
select(image_data_qa, root_folder, file, starts_with("QA_"))
#> # A tibble: 24 × 12
#>    root_folder   file         QA_BLANK_study_area_name QA_BLANK_sample_station…¹
#>    <chr>         <chr>        <lgl>                    <lgl>                    
#>  1 27_20230605   RCNX0030.JPG FALSE                    FALSE                    
#>  2 100RECNX      RCNX0114.JPG FALSE                    FALSE                    
#>  3 100RECNX      RCNX0118.JPG FALSE                    FALSE                    
#>  4 21_2_20230605 RCNX0010.JPG FALSE                    FALSE                    
#>  5 100RECNX      RCNX0261.JPG FALSE                    FALSE                    
#>  6 100RECNX      RCNX0339.JPG FALSE                    FALSE                    
#>  7 100RECNX      RCNX0376.JPG FALSE                    FALSE                    
#>  8 29_2_20230605 IMG_0252.JPG FALSE                    FALSE                    
#>  9 100RECNX      IMG_0134.JPG FALSE                    FALSE                    
#> 10 102RECNX      RCNX0041.JPG FALSE                    FALSE                    
#> # ℹ 14 more rows
#> # ℹ abbreviated name: ¹​QA_BLANK_sample_station_label
#> # ℹ 8 more variables: QA_BLANK_deployment_label <lgl>,
#> #   QA_BLANK_date_time <lgl>, QA_BLANK_surveyor <lgl>,
#> #   QA_BLANK_trigger_mode <lgl>, QA_BLANK_temperature <lgl>,
#> #   QA_BLANK_episode <lgl>, QA_timelapse_lag <lgl>, QA_snow_outlier <lgl>
…
