…
``` r
sample_stations <- read_sample_station_info(metadata_path)
sample_stations
```

    #> Simple feature collection with 21 features and 28 fields
    #> Geometry type: POINT
    #> Dimension:     XY
    #> Bounding box:  xmin: -126.8515 ymin: 51.47261 xmax: -126.0528 ymax: 51.52903
    #> Geodetic CRS:  WGS 84
    #> # A tibble: 21 × 23
    #>    study_area_name study_area_photos sample_station_label station_status
    #>    <chr>           <chr>             <chr>                <chr>         
    #>  1 Test Project    Y                 19_1                 Camera Active 
    #>  2 Test Project    Y                 19_2                 Camera Active 
    #>  3 Test Project    Y                 20                   Camera Active 
    #>  4 Test Project    Y                 21_1                 Camera Active 
    #>  5 Test Project    Y                 21_2                 Camera Active 
    #>  6 Test Project    Y                 24                   Camera Active 
    #>  7 Test Project    Y                 25                   Camera Active 
    #>  8 Test Project    Y                 26                   Camera Active 
    #>  9 Test Project    Y                 27                   Camera Moved  
    #> 10 Test Project    Y                 28                   Camera Active 
    #> # ℹ 11 more rows
    #> # ℹ 19 more variables: number_of_cameras <dbl>, set_date <date>,
    #> #   general_location <chr>, elevation_m <dbl>, slope_percent <dbl>,
    #> #   aspect_degrees <dbl>, crown_closure_percent <dbl>,
    #> #   camera_bearing_degrees <dbl>, camera_height_cm <dbl>,
    #> #   distance_to_feature_m <dbl>, visible_range_m <dbl>, habitat_feature <chr>,
    #> #   lock <chr>, code <chr>, sample_station_comments <chr>, …
…
``` r
map_stations(sample_stations)
```

<img src="man/figures/README-unnamed-chunk-8-1.png" width="100%" />

#### Camera Setup and Checks:

``` r
camera_setup_checks <- read_cam_setup_checks(metadata_path)
camera_setup_checks
```

    #> # A tibble: 43 × 30
    #>    study_area_name sample_station_label deployment_label camera_label surveyors
    #>    <chr>           <chr>                <chr>            <chr>        <chr>    
    #>  1 Test Project    19_1                 <NA>             UBC 2        MB,MS    
    #>  2 Test Project    19_2                 <NA>             UBC 1        MB,MS    
    #>  3 Test Project    20                   <NA>             Eco1059      MB,MS    
    #>  4 Test Project    21_1                 <NA>             Eco1057      MB,MS    
    #>  5 Test Project    21_2                 <NA>             Eco7998      MB,MS    
    #>  6 Test Project    24                   <NA>             Eco1050      MB,MS    
    #>  7 Test Project    25                   <NA>             Eco1040      MB,MS    
    #>  8 Test Project    26                   <NA>             Eco7939      MB,MS    
    #>  9 Test Project    27                   <NA>             Eco6690      MB,MS    
    #> 10 Test Project    28                   <NA>             UBC 4        MB,MS    
    #> # ℹ 33 more rows
    #> # ℹ 25 more variables: date_time_checked <dttm>, sampling_start <dttm>,
    #> #   sampling_end <dttm>, total_visit_or_deployment_time <dbl>,
    #> #   unit_of_total_time_code <chr>, visit_type <chr>,
    #> #   camera_status_on_arrival <chr>, battery_level <chr>,
    #> #   batteries_changed <chr>, number_of_photos <dbl>, quiet_period_s <chr>,
    #> #   trigger_sensitivity <chr>, trigger_timing_s <dbl>, …
…
``` r
deployments <- make_deployments(metadata_path)
deployments
```

    #> Simple feature collection with 28 features and 58 fields
    #> Geometry type: POINT
    #> Dimension:     XY
    #> Bounding box:  xmin: -119.4425 ymin: 44.95789 xmax: -118.7563 ymax: 45.05068
    #> Geodetic CRS:  WGS 84
    #> # A tibble: 28 × 53
    #>    study_area_name sample_station_label deployment_label camera_label surveyors
    #>    <chr>           <chr>                <chr>            <chr>        <chr>    
    #>  1 Test Project    19_1                 19_1_20230605    UBC 2        CM, BT   
    #>  2 Test Project    19_2                 19_2_20230605    UBC 1        CM, BT   
    #>  3 Test Project    20                   20_20230605      Eco1059      CM, BT   
    #>  4 Test Project    21_1                 21_20230605      Eco1057      CM, BT   
    #>  5 Test Project    21_2                 21_2_20230605    Eco7998      CM, BT   
    #>  6 Test Project    24                   24_20230708      Eco1050      MB,MS    
    #>  7 Test Project    25                   25_20230710      Eco1040      MB,MS    
    #>  8 Test Project    26                   26_20230710      Eco7939      MB,MS    
    #>  9 Test Project    27                   27_20230605      Eco6690      CM, BT   
    #> 10 Test Project    28                   28_20230605      UBC 4        CM, BT   
    #> # ℹ 18 more rows
    #> # ℹ 48 more variables: date_time_checked <dttm>, deployment_start <dttm>,
    #> #   deployment_end <dttm>, deployment_duration_days <dbl>,
    #> #   deployment_duration_valid <lgl>, total_visit_or_deployment_time <dbl>,
    #> #   unit_of_total_time_code <chr>, visit_type <chr>,
    #> #   camera_status_on_arrival <chr>, battery_level <chr>,
    #> #   batteries_changed <chr>, number_of_photos <dbl>, quiet_period_s <chr>, …
…
<img src="man/figures/README-unnamed-chunk-14-1.png" width="100%" />

### Image data

We can read in an entire directory of image data from multiple csv
files, as long as they all follow the same TimeLapse template. Currently
it is expected that they follow the `v20230518` template.

``` r
image_data <- read_image_data(data_path)
image_data
```

    #> # A tibble: 11,833 × 42
    #>    root_folder study_area_name sample_station_label deployment_label
    #>    <chr>       <chr>           <chr>                <chr>           
    #>  1 100RECNX    Test Project    19_1                 19_1_20230605   
    #>  2 100RECNX    Test Project    19_1                 19_1_20230605   
    #>  3 100RECNX    Test Project    19_1                 19_1_20230605   
    #>  4 100RECNX    Test Project    19_1                 19_1_20230605   
    #>  5 100RECNX    Test Project    19_1                 19_1_20230605   
    #>  6 100RECNX    Test Project    19_1                 19_1_20230605   
    #>  7 100RECNX    Test Project    19_1                 19_1_20230605   
    #>  8 100RECNX    Test Project    19_1                 19_1_20230605   
    #>  9 100RECNX    Test Project    19_1                 19_1_20230605   
    #> 10 100RECNX    Test Project    19_1                 19_1_20230605   
    #> # ℹ 11,823 more rows
    #> # ℹ 38 more variables: date_time <dttm>, episode <chr>, species <chr>,
    #> #   total_count_episode <dbl>, obj_count_image <int>, adult_male <int>,
    #> #   adult_female <int>, adult_unclassified_sex <int>, yearling_male <int>,
    #> #   yearling_female <int>, yearling_unclassified_sex <int>,
    #> #   young_of_year_unclassified_sex <int>, juvenile_unclassified_sex <int>,
    #> #   male_unclassified_age <int>, female_unclassified_age <int>, …
…
